{
  "preset": "react-native",
  "collectCoverage": true,
  "moduleDirectories": ["node_modules", "app"],
  "transform": {
    "^.+\\.js$": "<rootDir>/node_modules/react-native/jest/preprocessor.js"
  },
  "setupFiles": ["<rootDir>/jest/setup.js"],
  "transformIgnorePatterns": ["node_modules/(?!(jest-)?react-native)"],
  "coveragePathIgnorePatterns": ["/node_modules/", "/jest"],
  "coverageDirectory": "<rootDir>/coverage/"
}
